Importing Data
…
The object pigs is known as a data.frame

R equivalent to a spreadsheet

Missing values (blank cells) are usually filled with NA

Must have column names \(\implies\) row names becoming less common

Data Frame Objects

Instead of View() \(\implies\) preview by typing the object name

pigs

# A tibble: 60 × 3
     len supp  dose 
   <dbl> <chr> <chr>
 1   4.2 VC    Low  
 2  11.5 VC    Low  
 3   7.3 VC    Low  
 4   5.8 VC    Low  
 5   6.4 VC    Low  
 6  10   VC    Low  
 7  11.2 VC    Low  
 8  11.2 VC    Low  
 9   5.2 VC    Low  
10   7   VC    Low  
# ℹ 50 more rows
…
data.frame objects can be subset using square brackets [row, col]

pigs[1:3, ]

# A tibble: 3 × 3
    len supp  dose 
  <dbl> <chr> <chr>
1   4.2 VC    Low  
2  11.5 VC    Low  
3   7.3 VC    Low  

pigs[, "len"]

# A tibble: 60 × 1
     len
   <dbl>
 1   4.2
 2  11.5
 3   7.3
 4   5.8
 5   6.4
 6  10  
 7  11.2
 8  11.2
 9   5.2
10   7  
# ℹ 50 more rows
…
