Tidying Data
…
. . .

The |> placed transport into the first argument of filter()

The output of filter() was a data.frame 
\(\implies\) this was placed as the first argument to arrange()

Using dplyr::mutate()

We can add extra columns using mutate()

transport |> mutate(height_m = height/100)

# A tibble: 32 × 6
   gender name     weight height method height_m
   <chr>  <chr>     <dbl>  <dbl> <chr>     <dbl>
 1 female Jerrin     63.6   163. car        1.63
 2 female Taylor     65.9   168. bike       1.68
 3 female Kalen      58.9   162. bike       1.62
 4 Female Abigail    58.3   163. bike       1.63
 5 Female Dakota     62.9   166. bike       1.66
 6 female Melissa    65.0   167. car        1.67
 7 female Brittany   65.9   168. bike       1.68
 8 female Hanna      67.5   169. bike       1.69
 9 female Kellie     64.4   167. bike       1.67
10 female Kimber     58.1   163. bike       1.63
# ℹ 22 more rows

Using dplyr::mutate()

Once we’ve added a column, we can refer to it by name and keep adding

transport |> 
  mutate(
    height_m = height/100, 
    BMI = weight / height_m^2
  )

# A tibble: 32 × 7
   gender name     weight height method height_m   BMI
   <chr>  <chr>     <dbl>  <dbl> <chr>     <dbl> <dbl>
 1 female Jerrin     63.6   163. car        1.63  23.8
 2 female Taylor     65.9   168. bike       1.68  23.4
 3 female Kalen      58.9   162. bike       1.62  22.6
 4 Female Abigail    58.3   163. bike       1.63  21.8
 5 Female Dakota     62.9   166. bike       1.66  22.8
 6 female Melissa    65.0   167. car        1.67  23.5
 7 female Brittany   65.9   168. bike       1.68  23.5
 8 female Hanna      67.5   169. bike       1.69  23.5
 9 female Kellie     64.4   167. bike       1.67  23.1
10 female Kimber     58.1   163. bike       1.63  21.8
# ℹ 22 more rows

Using dplyr::mutate()

We can also modify existing columns in place

transport |> mutate(height = height/100)

# A tibble: 32 × 5
   gender name     weight height method
   <chr>  <chr>     <dbl>  <dbl> <chr> 
 1 female Jerrin     63.6   1.63 car   
 2 female Taylor     65.9   1.68 bike  
 3 female Kalen      58.9   1.62 bike  
 4 Female Abigail    58.3   1.63 bike  
 5 Female Dakota     62.9   1.66 bike  
 6 female Melissa    65.0   1.67 car   
 7 female Brittany   65.9   1.68 bike  
 8 female Hanna      67.5   1.69 bike  
 9 female Kellie     64.4   1.67 bike  
10 female Kimber     58.1   1.63 bike  
# ℹ 22 more rows

. . .

 Have we changed the original object yet?

Using dplyr::rename()

Can use the function rename()

transport |> rename(height_cm = height)

# A tibble: 32 × 5
   gender name     weight height_cm method
   <chr>  <chr>     <dbl>     <dbl> <chr> 
 1 female Jerrin     63.6      163. car   
 2 female Taylor     65.9      168. bike  
 3 female Kalen      58.9      162. bike  
 4 Female Abigail    58.3      163. bike  
 5 Female Dakota     62.9      166. bike  
 6 female Melissa    65.0      167. car   
 7 female Brittany   65.9      168. bike  
 8 female Hanna      67.5      169. bike  
 9 female Kellie     64.4      167. bike  
10 female Kimber     58.1      163. bike  
# ℹ 22 more rows
…
Some may be missing in one of the objects

The values in the name column look similar

In a different order

How do we combine these?

dplyr::left_join()

We can use the first tibble as the template: left_join()

left_join(transport, contacts, by = "name")

# A tibble: 32 × 7
   gender name     weight height method   BMI contact   
   <fct>  <chr>     <dbl>  <dbl> <fct>  <dbl> <chr>     
 1 female Jerrin     63.6   163. car     23.8 0548903275
 2 female Taylor     65.9   168. bike    23.4 0594078621
 3 female Kalen      58.9   162. bike    22.6 0554879160
 4 female Abigail    58.3   163. bike    21.8 0542156907
 5 female Dakota     62.9   166. bike    22.8 0545860271
 6 female Melissa    65.0   167. car     23.5 0525907138
 7 female Brittany   65.9   168. bike    23.5 0546083952
 8 female Hanna      67.5   169. bike    23.5 0506213847
 9 female Kellie     64.4   167. bike    23.1 0547250369
10 female Kimber     58.1   163. bike    21.8 0518650974
# ℹ 22 more rows
…
